…
| **Dimensions** | **Homogeneous** | **Heterogeneous**                |
|----------------|-----------------|----------------------------------|
| 1-D            | atomic vector   | list                             |
| 2-D            | matrix          | data.frame / tibble / data.table |
| n-D            | array           | ---                              |

Here is an example of a tibble:


```r
mpg
```

```
## # A tibble: 234 x 11
##    manufacturer model      displ  year   cyl trans drv     cty   hwy fl    class
##    <chr>        <chr>      <dbl> <int> <int> <chr> <chr> <int> <int> <chr> <chr>
##  1 audi         a4           1.8  1999     4 auto~ f        18    29 p     comp~
##  2 audi         a4           1.8  1999     4 manu~ f        21    29 p     comp~
##  3 audi         a4           2    2008     4 manu~ f        20    31 p     comp~
##  4 audi         a4           2    2008     4 auto~ f        21    30 p     comp~
##  5 audi         a4           2.8  1999     6 auto~ f        16    26 p     comp~
##  6 audi         a4           2.8  1999     6 manu~ f        18    26 p     comp~
##  7 audi         a4           3.1  2008     6 auto~ f        18    27 p     comp~
##  8 audi         a4 quattro   1.8  1999     4 manu~ 4        18    26 p     comp~
##  9 audi         a4 quattro   1.8  1999     4 auto~ 4        16    25 p     comp~
## 10 audi         a4 quattro   2    2008     4 manu~ 4        20    28 p     comp~
## # i 224 more rows
```
…
We will be using the pipe operator throughout the workshop to make our code more readable and concise.

### What makes data tidy?

Our definition of a tidy dataset is one in which all data is in a 2D table with rows representing observations and columns representing variables.

Here is an example of tidy data:


```r
mpg
```

```
## # A tibble: 234 x 11
##    manufacturer model      displ  year   cyl trans drv     cty   hwy fl    class
##    <chr>        <chr>      <dbl> <int> <int> <chr> <chr> <int> <int> <chr> <chr>
##  1 audi         a4           1.8  1999     4 auto~ f        18    29 p     comp~
##  2 audi         a4           1.8  1999     4 manu~ f        21    29 p     comp~
##  3 audi         a4           2    2008     4 manu~ f        20    31 p     comp~
##  4 audi         a4           2    2008     4 auto~ f        21    30 p     comp~
##  5 audi         a4           2.8  1999     6 auto~ f        16    26 p     comp~
##  6 audi         a4           2.8  1999     6 manu~ f        18    26 p     comp~
##  7 audi         a4           3.1  2008     6 auto~ f        18    27 p     comp~
##  8 audi         a4 quattro   1.8  1999     4 manu~ 4        18    26 p     comp~
##  9 audi         a4 quattro   1.8  1999     4 auto~ 4        16    25 p     comp~
## 10 audi         a4 quattro   2    2008     4 manu~ 4        20    28 p     comp~
## # i 224 more rows
```
…
Here is an example of data that is not tidy:


```r
billboard
```

```
## # A tibble: 317 x 79
##    artist     track date.entered   wk1   wk2   wk3   wk4   wk5   wk6   wk7   wk8
##    <chr>      <chr> <date>       <dbl> <dbl> <dbl> <dbl> <dbl> <dbl> <dbl> <dbl>
##  1 2 Pac      Baby~ 2000-02-26      87    82    72    77    87    94    99    NA
##  2 2Ge+her    The ~ 2000-09-02      91    87    92    NA    NA    NA    NA    NA
##  3 3 Doors D~ Kryp~ 2000-04-08      81    70    68    67    66    57    54    53
##  4 3 Doors D~ Loser 2000-10-21      76    76    72    69    67    65    55    59
##  5 504 Boyz   Wobb~ 2000-04-15      57    34    25    17    17    31    36    49
##  6 98^0       Give~ 2000-08-19      51    39    34    26    26    19     2     2
##  7 A*Teens    Danc~ 2000-07-08      97    97    96    95   100    NA    NA    NA
##  8 Aaliyah    I Do~ 2000-01-29      84    62    51    41    38    35    35    38
##  9 Aaliyah    Try ~ 2000-03-18      59    53    38    28    21    18    16    14
## 10 Adams, Yo~ Open~ 2000-08-26      76    76    74    69    68    67    61    58
## # i 307 more rows
## # i 68 more variables: wk9 <dbl>, wk10 <dbl>, wk11 <dbl>, wk12 <dbl>,
## #   wk13 <dbl>, wk14 <dbl>, wk15 <dbl>, wk16 <dbl>, wk17 <dbl>, wk18 <dbl>,
## #   wk19 <dbl>, wk20 <dbl>, wk21 <dbl>, wk22 <dbl>, wk23 <dbl>, wk24 <dbl>,
## #   wk25 <dbl>, wk26 <dbl>, wk27 <dbl>, wk28 <dbl>, wk29 <dbl>, wk30 <dbl>,
## #   wk31 <dbl>, wk32 <dbl>, wk33 <dbl>, wk34 <dbl>, wk35 <dbl>, wk36 <dbl>,
## #   wk37 <dbl>, wk38 <dbl>, wk39 <dbl>, wk40 <dbl>, wk41 <dbl>, wk42 <dbl>, ...
```
…
```r
## This tidies the data
billboard_tidy <- billboard %>% 
  pivot_longer(cols = starts_with("wk"),
               names_to = "week",
               values_to = "ranking",
               values_drop_na = TRUE)

print(billboard_tidy)
```

```
## # A tibble: 5,307 x 5
##    artist  track                   date.entered week  ranking
##    <chr>   <chr>                   <date>       <chr>   <dbl>
##  1 2 Pac   Baby Don't Cry (Keep... 2000-02-26   wk1        87
##  2 2 Pac   Baby Don't Cry (Keep... 2000-02-26   wk2        82
##  3 2 Pac   Baby Don't Cry (Keep... 2000-02-26   wk3        72
##  4 2 Pac   Baby Don't Cry (Keep... 2000-02-26   wk4        77
##  5 2 Pac   Baby Don't Cry (Keep... 2000-02-26   wk5        87
##  6 2 Pac   Baby Don't Cry (Keep... 2000-02-26   wk6        94
##  7 2 Pac   Baby Don't Cry (Keep... 2000-02-26   wk7        99
##  8 2Ge+her The Hardest Part Of ... 2000-09-02   wk1        91
##  9 2Ge+her The Hardest Part Of ... 2000-09-02   wk2        87
## 10 2Ge+her The Hardest Part Of ... 2000-09-02   wk3        92
## # i 5,297 more rows
```
```r
## Once data is tidied, we just need two function calls to get the info we need
## This is much easier to read and interpret
billboard_tidy %>% 
  group_by(artist, track) %>% 
  summarize(number_of_weeks = n())
```

```
## `summarise()` has grouped output by 'artist'. You can override using the
## `.groups` argument.
```

```
## # A tibble: 317 x 3
## # Groups:   artist [228]
##    artist         track                   number_of_weeks
##    <chr>          <chr>                             <int>
##  1 2 Pac          Baby Don't Cry (Keep...               7
##  2 2Ge+her        The Hardest Part Of ...               3
##  3 3 Doors Down   Kryptonite                           53
##  4 3 Doors Down   Loser                                20
##  5 504 Boyz       Wobble Wobble                        18
##  6 98^0           Give Me Just One Nig...              20
##  7 A*Teens        Dancing Queen                         5
##  8 Aaliyah        I Don't Wanna                        20
##  9 Aaliyah        Try Again                            32
## 10 Adams, Yolanda Open My Heart                        20
## # i 307 more rows
```
…
>**Exercise**: Load the `ChickWeight` dataset. Is this data tidy? Why or why not?


```r
tibble(ChickWeight)
```

```
## # A tibble: 578 x 4
##    weight  Time Chick Diet 
##     <dbl> <dbl> <ord> <fct>
##  1     42     0 1     1    
##  2     51     2 1     1    
##  3     59     4 1     1    
##  4     64     6 1     1    
##  5     76     8 1     1    
##  6     93    10 1     1    
##  7    106    12 1     1    
##  8    125    14 1     1    
##  9    149    16 1     1    
## 10    171    18 1     1    
## # i 568 more rows
```
…
* cols = the columns that you want to collapse into a single column
* names_to = the name of the new column that will hold the names of the columns you gathered
* values_to = the name of the new column that will hold the data of the columns you gathered

We start with the `data`, then specify the `cols` we want to gather together (the "wk" columns). This will then take all those column names and put it under a new variable named `names_to`. The values of those weeks, aka the rankings, we're going to pass to `values_to`. So all the data from the "wk" columns will be collapsed into two columns, one for "week" and one for "ranking". The rest of the data will be duplicated as needed to uniquely identify each observation.


```r
billboard %>% pivot_longer(cols = starts_with("wk"),
                           names_to = "week",
                           values_to = "ranking")
```

```
## # A tibble: 24,092 x 5
##    artist track                   date.entered week  ranking
##    <chr>  <chr>                   <date>       <chr>   <dbl>
##  1 2 Pac  Baby Don't Cry (Keep... 2000-02-26   wk1        87
##  2 2 Pac  Baby Don't Cry (Keep... 2000-02-26   wk2        82
##  3 2 Pac  Baby Don't Cry (Keep... 2000-02-26   wk3        72
##  4 2 Pac  Baby Don't Cry (Keep... 2000-02-26   wk4        77
##  5 2 Pac  Baby Don't Cry (Keep... 2000-02-26   wk5        87
##  6 2 Pac  Baby Don't Cry (Keep... 2000-02-26   wk6        94
##  7 2 Pac  Baby Don't Cry (Keep... 2000-02-26   wk7        99
##  8 2 Pac  Baby Don't Cry (Keep... 2000-02-26   wk8        NA
##  9 2 Pac  Baby Don't Cry (Keep... 2000-02-26   wk9        NA
## 10 2 Pac  Baby Don't Cry (Keep... 2000-02-26   wk10       NA
## # i 24,082 more rows
```

This looks a bit better, but we created a lot of extraneous columns due to the default behavior of `pivot_longer()` creating a row for every combination of the gathered variable (week) and the song. We can have it drop the NA values by adding the argument `values_drop_na = TRUE`. Run the below code and you'll see that our number of rows drops from 24 thousand to 5 thousand by excluding the empty weeks. 


```r
billboard %>% pivot_longer(cols = starts_with("wk"),
                           names_to = "week",
                           values_to = "ranking",
                           values_drop_na = TRUE)
```

```
## # A tibble: 5,307 x 5
##    artist  track                   date.entered week  ranking
##    <chr>   <chr>                   <date>       <chr>   <dbl>
##  1 2 Pac   Baby Don't Cry (Keep... 2000-02-26   wk1        87
##  2 2 Pac   Baby Don't Cry (Keep... 2000-02-26   wk2        82
##  3 2 Pac   Baby Don't Cry (Keep... 2000-02-26   wk3        72
##  4 2 Pac   Baby Don't Cry (Keep... 2000-02-26   wk4        77
##  5 2 Pac   Baby Don't Cry (Keep... 2000-02-26   wk5        87
##  6 2 Pac   Baby Don't Cry (Keep... 2000-02-26   wk6        94
##  7 2 Pac   Baby Don't Cry (Keep... 2000-02-26   wk7        99
##  8 2Ge+her The Hardest Part Of ... 2000-09-02   wk1        91
##  9 2Ge+her The Hardest Part Of ... 2000-09-02   wk2        87
## 10 2Ge+her The Hardest Part Of ... 2000-09-02   wk3        92
## # i 5,297 more rows
```

>**Exercise**: Look at the `relig_income` dataset. How would you pivot this data to make it tidy? Think of the function `pivot_longer(data, cols, names_to, values_to)`. What would be cols, names_to, and values_to?


```r
## cols is every column except religion
## names_to would be income bracket, which we can shorten to "income"
## values_to would be the "count" of people in that religion and income bracket
relig_income %>% pivot_longer(cols = !religion,
                             names_to = "income",
                             values_to = "count")
```

```
## # A tibble: 180 x 3
##    religion income             count
##    <chr>    <chr>              <dbl>
##  1 Agnostic <$10k                 27
##  2 Agnostic $10-20k               34
##  3 Agnostic $20-30k               60
##  4 Agnostic $30-40k               81
##  5 Agnostic $40-50k               76
##  6 Agnostic $50-75k              137
##  7 Agnostic $75-100k             122
##  8 Agnostic $100-150k            109
##  9 Agnostic >150k                 84
## 10 Agnostic Don't know/refused    96
## # i 170 more rows
```
…
### Selecting columns

You can select a subset of the columns in a table using the `select()` function and specifying the columns you want. 


```r
mpg %>% select(manufacturer, model, year)
```

```
## # A tibble: 234 x 3
##    manufacturer model       year
##    <chr>        <chr>      <int>
##  1 audi         a4          1999
##  2 audi         a4          1999
##  3 audi         a4          2008
##  4 audi         a4          2008
##  5 audi         a4          1999
##  6 audi         a4          1999
##  7 audi         a4          2008
##  8 audi         a4 quattro  1999
##  9 audi         a4 quattro  1999
## 10 audi         a4 quattro  2008
## # i 224 more rows
```

Another way to get the columns you want is to use the `starts_with()`, `ends_with()`, `contains()`, and `matches()` functions. 


```r
weather %>% select(starts_with("wind"))
```

```
## # A tibble: 26,115 x 3
##    wind_dir wind_speed wind_gust
##       <dbl>      <dbl>     <dbl>
##  1      270      10.4         NA
##  2      250       8.06        NA
##  3      240      11.5         NA
##  4      250      12.7         NA
##  5      260      12.7         NA
##  6      240      11.5         NA
##  7      240      15.0         NA
##  8      250      10.4         NA
##  9      260      15.0         NA
## 10      260      13.8         NA
## # i 26,105 more rows
```

```r
billboard %>% select(contains("wk"))
```

```
## # A tibble: 317 x 76
##      wk1   wk2   wk3   wk4   wk5   wk6   wk7   wk8   wk9  wk10  wk11  wk12  wk13
##    <dbl> <dbl> <dbl> <dbl> <dbl> <dbl> <dbl> <dbl> <dbl> <dbl> <dbl> <dbl> <dbl>
##  1    87    82    72    77    87    94    99    NA    NA    NA    NA    NA    NA
##  2    91    87    92    NA    NA    NA    NA    NA    NA    NA    NA    NA    NA
##  3    81    70    68    67    66    57    54    53    51    51    51    51    47
##  4    76    76    72    69    67    65    55    59    62    61    61    59    61
##  5    57    34    25    17    17    31    36    49    53    57    64    70    75
##  6    51    39    34    26    26    19     2     2     3     6     7    22    29
##  7    97    97    96    95   100    NA    NA    NA    NA    NA    NA    NA    NA
##  8    84    62    51    41    38    35    35    38    38    36    37    37    38
##  9    59    53    38    28    21    18    16    14    12    10     9     8     6
## 10    76    76    74    69    68    67    61    58    57    59    66    68    61
## # i 307 more rows
## # i 63 more variables: wk14 <dbl>, wk15 <dbl>, wk16 <dbl>, wk17 <dbl>,
## #   wk18 <dbl>, wk19 <dbl>, wk20 <dbl>, wk21 <dbl>, wk22 <dbl>, wk23 <dbl>,
## #   wk24 <dbl>, wk25 <dbl>, wk26 <dbl>, wk27 <dbl>, wk28 <dbl>, wk29 <dbl>,
## #   wk30 <dbl>, wk31 <dbl>, wk32 <dbl>, wk33 <dbl>, wk34 <dbl>, wk35 <dbl>,
## #   wk36 <dbl>, wk37 <dbl>, wk38 <dbl>, wk39 <dbl>, wk40 <dbl>, wk41 <dbl>,
## #   wk42 <dbl>, wk43 <dbl>, wk44 <dbl>, wk45 <dbl>, wk46 <dbl>, wk47 <dbl>, ...
```
…
```r
mutate(data, new_column_name = operation)
```

When you perform operations on existing columns, you don't need to use the `$` operator to access the columns. 


```r
flights %>% 
  mutate(avg_speed = distance / air_time * 60,
         gain = dep_delay - arr_delay)
```

```
## # A tibble: 336,776 x 21
##     year month   day dep_time sched_dep_time dep_delay arr_time sched_arr_time
##    <int> <int> <int>    <int>          <int>     <dbl>    <int>          <int>
##  1  2013     1     1      517            515         2      830            819
##  2  2013     1     1      533            529         4      850            830
##  3  2013     1     1      542            540         2      923            850
##  4  2013     1     1      544            545        -1     1004           1022
##  5  2013     1     1      554            600        -6      812            837
##  6  2013     1     1      554            558        -4      740            728
##  7  2013     1     1      555            600        -5      913            854
##  8  2013     1     1      557            600        -3      709            723
##  9  2013     1     1      557            600        -3      838            846
## 10  2013     1     1      558            600        -2      753            745
## # i 336,766 more rows
## # i 13 more variables: arr_delay <dbl>, carrier <chr>, flight <int>,
## #   tailnum <chr>, origin <chr>, dest <chr>, air_time <dbl>, distance <dbl>,
## #   hour <dbl>, minute <dbl>, time_hour <dttm>, avg_speed <dbl>, gain <dbl>
```
…
